Words/min: 18.35906
Characters/min: 50.18143
Time to finish this level: 2941.327
Total mistakes: 0
Total words: 20
Total words typed: 15
Total characters typed: 41
Total time played: 2941.32642030716
