Words/min: 27.39347
Characters/min: 68.48367
Time to finish this level: 0min 21sec
Total mistakes: 3
Total words: 10
Total words typed: 10
Total characters typed: 25
Total time played: 0min 21sec
===========================================
Target Word	User's Input
 re	re
 an	an
 near	nrnanrneneanear
 re	re
 are	arare
 na	na
 en	en
 re	re
 rea	rerea
 arn	ararn
