Words/min: 29.90702
Characters/min: 65.79544
Time to finish this level: 0min 20sec
Total mistakes: 0
Total words: 10
Total words typed: 10
Total characters typed: 22
Total time played: 0min 20sec
===========================================
Target Word	User's Input
ae    ae
re    re
rea    rea
are    arare
na    na
ea    ea
er    
an    an
ae    ae
na    na
